Temperature (C)	Pressure (bar)	Density (mol/l)	Volume (l/mol)	Internal Energy (kJ/mol)	Enthalpy (kJ/mol)	Entropy (J/mol*K)	Cv (J/mol*K)	Cp (J/mol*K)	Sound Spd. (m/s)	Joule-Thomson (K/bar)	Viscosity (uPa*s)	Therm. Cond. (W/m*K)	Phase
10.000	15.000	0.64004	1.5624	5.7857	8.1293	167.26	20.924	29.905	345.10	0.22852	17.353	0.025258	vapor
15.000	15.000	0.62847	1.5912	5.8920	8.2787	167.79	20.920	29.873	348.24	0.22013	17.583	0.025590	vapor
20.000	15.000	0.61732	1.6199	5.9982	8.4280	168.30	20.918	29.844	351.33	0.21209	17.812	0.025919	vapor
25.000	15.000	0.60658	1.6486	6.1043	8.5772	168.80	20.915	29.817	354.40	0.20437	18.040	0.026246	vapor
30.000	15.000	0.59622	1.6772	6.2103	8.7262	169.30	20.914	29.791	357.43	0.19695	18.266	0.026572	vapor
35.000	15.000	0.58622	1.7058	6.3163	8.8751	169.79	20.912	29.768	360.43	0.18982	18.490	0.026896	vapor
40.000	15.000	0.57656	1.7344	6.4222	9.0239	170.27	20.912	29.746	363.41	0.18296	18.713	0.027218	vapor
45.000	15.000	0.56722	1.7630	6.5281	9.1726	170.74	20.912	29.727	366.35	0.17635	18.935	0.027538	vapor
50.000	15.000	0.55819	1.7915	6.6339	9.3211	171.20	20.912	29.708	369.26	0.16999	19.155	0.027856	vapor
55.000	15.000	0.54946	1.8200	6.7397	9.4696	171.66	20.913	29.692	372.15	0.16385	19.374	0.028173	vapor
60.000	15.000	0.54100	1.8484	6.8454	9.6181	172.11	20.915	29.676	375.01	0.15792	19.592	0.028489	vapor
65.000	15.000	0.53280	1.8769	6.9511	9.7664	172.55	20.917	29.663	377.84	0.15220	19.808	0.028803	vapor
70.000	15.000	0.52486	1.9053	7.0568	9.9147	172.98	20.919	29.650	380.65	0.14668	20.023	0.029115	vapor
75.000	15.000	0.51715	1.9337	7.1624	10.063	173.41	20.922	29.639	383.43	0.14134	20.237	0.029426	vapor
80.000	15.000	0.50968	1.9620	7.2681	10.211	173.83	20.926	29.629	386.19	0.13618	20.450	0.029736	vapor
85.000	15.000	0.50242	1.9904	7.3737	10.359	174.25	20.930	29.620	388.92	0.13118	20.661	0.030045	vapor
90.000	15.000	0.49537	2.0187	7.4793	10.507	174.66	20.935	29.613	391.64	0.12634	20.871	0.030352	vapor
95.000	15.000	0.48853	2.0470	7.5849	10.655	175.07	20.941	29.606	394.32	0.12166	21.080	0.030658	vapor
100.00	15.000	0.48187	2.0753	7.6905	10.803	175.47	20.947	29.601	396.99	0.11712	21.287	0.030963	vapor
105.00	15.000	0.47539	2.1035	7.7961	10.951	175.86	20.953	29.597	399.63	0.11271	21.494	0.031267	vapor
110.00	15.000	0.46909	2.1318	7.9017	11.099	176.25	20.961	29.594	402.26	0.10845	21.699	0.031570	vapor
115.00	15.000	0.46296	2.1600	8.0073	11.247	176.63	20.968	29.592	404.86	0.10430	21.904	0.031871	vapor
120.00	15.000	0.45699	2.1882	8.1129	11.395	177.01	20.977	29.591	407.44	0.10028	22.107	0.032172	vapor
125.00	15.000	0.45118	2.2164	8.2186	11.543	177.38	20.986	29.591	410.00	0.096379	22.309	0.032472	vapor
130.00	15.000	0.44551	2.2446	8.3243	11.691	177.75	20.995	29.592	412.54	0.092587	22.510	0.032771	vapor
135.00	15.000	0.43999	2.2728	8.4300	11.839	178.12	21.006	29.594	415.07	0.088901	22.710	0.033069	vapor
140.00	15.000	0.43461	2.3009	8.5357	11.987	178.48	21.016	29.597	417.57	0.085319	22.908	0.033367	vapor
145.00	15.000	0.42936	2.3291	8.6415	12.135	178.84	21.028	29.601	420.05	0.081835	23.106	0.033664	vapor
150.00	15.000	0.42423	2.3572	8.7473	12.283	179.19	21.040	29.606	422.52	0.078447	23.303	0.033960	vapor
155.00	15.000	0.41923	2.3853	8.8532	12.431	179.53	21.053	29.611	424.97	0.075149	23.499	0.034255	vapor
160.00	15.000	0.41435	2.4134	8.9591	12.579	179.88	21.066	29.618	427.40	0.071940	23.694	0.034550	vapor
165.00	15.000	0.40958	2.4415	9.0650	12.727	180.22	21.080	29.625	429.81	0.068816	23.888	0.034844	vapor
170.00	15.000	0.40492	2.4696	9.1710	12.875	180.55	21.094	29.634	432.21	0.065773	24.080	0.035137	vapor
175.00	15.000	0.40037	2.4977	9.2771	13.024	180.89	21.110	29.643	434.58	0.062809	24.272	0.035430	vapor
180.00	15.000	0.39592	2.5258	9.3832	13.172	181.22	21.125	29.653	436.95	0.059921	24.463	0.035722	vapor
185.00	15.000	0.39157	2.5538	9.4894	13.320	181.54	21.142	29.663	439.29	0.057107	24.653	0.036014	vapor
190.00	15.000	0.38731	2.5819	9.5957	13.469	181.86	21.159	29.675	441.62	0.054363	24.843	0.036306	vapor
195.00	15.000	0.38315	2.6099	9.7021	13.617	182.18	21.176	29.687	443.94	0.051688	25.031	0.036596	vapor
200.00	15.000	0.37908	2.6380	9.8085	13.765	182.50	21.194	29.700	446.23	0.049079	25.218	0.036887	vapor
205.00	15.000	0.37510	2.6660	9.9150	13.914	182.81	21.213	29.714	448.52	0.046533	25.405	0.037177	vapor
210.00	15.000	0.37119	2.6940	10.022	14.063	183.12	21.232	29.729	450.78	0.044050	25.591	0.037467	vapor
215.00	15.000	0.36737	2.7220	10.128	14.211	183.43	21.252	29.744	453.04	0.041627	25.775	0.037756	vapor
220.00	15.000	0.36363	2.7500	10.235	14.360	183.73	21.272	29.760	455.27	0.039261	25.959	0.038045	vapor
225.00	15.000	0.35997	2.7780	10.342	14.509	184.03	21.293	29.777	457.50	0.036952	26.143	0.038334	vapor
230.00	15.000	0.35638	2.8060	10.449	14.658	184.33	21.315	29.794	459.71	0.034697	26.325	0.038622	vapor
235.00	15.000	0.35286	2.8340	10.556	14.807	184.62	21.337	29.812	461.90	0.032495	26.507	0.038910	vapor
240.00	15.000	0.34941	2.8620	10.663	14.956	184.91	21.359	29.831	464.09	0.030344	26.687	0.039198	vapor
245.00	15.000	0.34603	2.8899	10.770	15.105	185.20	21.382	29.851	466.25	0.028242	26.867	0.039486	vapor
250.00	15.000	0.34271	2.9179	10.878	15.254	185.49	21.406	29.870	468.41	0.026189	27.047	0.039773	vapor
255.00	15.000	0.33946	2.9459	10.985	15.404	185.77	21.430	29.891	470.55	0.024182	27.225	0.040060	vapor
260.00	15.000	0.33627	2.9738	11.093	15.553	186.06	21.454	29.912	472.68	0.022221	27.403	0.040347	vapor
265.00	15.000	0.33314	3.0018	11.200	15.703	186.33	21.479	29.934	474.80	0.020304	27.580	0.040634	vapor
270.00	15.000	0.33006	3.0297	11.308	15.853	186.61	21.505	29.956	476.90	0.018430	27.756	0.040920	vapor
275.00	15.000	0.32705	3.0577	11.416	16.002	186.89	21.530	29.979	478.99	0.016597	27.932	0.041206	vapor
280.00	15.000	0.32409	3.0856	11.524	16.152	187.16	21.557	30.002	481.07	0.014804	28.106	0.041492	vapor
285.00	15.000	0.32118	3.1135	11.632	16.303	187.43	21.583	30.026	483.14	0.013051	28.281	0.041778	vapor
290.00	15.000	0.31833	3.1414	11.741	16.453	187.70	21.610	30.050	485.20	0.011336	28.454	0.042063	vapor
295.00	15.000	0.31552	3.1694	11.849	16.603	187.96	21.638	30.075	487.24	0.0096584	28.627	0.042349	vapor
300.00	15.000	0.31277	3.1973	11.958	16.753	188.23	21.666	30.100	489.27	0.0080167	28.799	0.042634	vapor
