UNIT MASS BALANCE REPORT   

12-Nov-2018
737376.4131

This report contains mass balances for all units in the
process simulation. Balances are in kg/hr. 

Run this function after you run ProcessSimulation.m or after
you have loaded the OUTPUT.mat file
 
-------------------------------------------------------------
Absorber 1 

Component 	 In [kg/hr] 	 Out [kg/hr] 	 Balance [kg/hr] 
 
 	 ET 	 33750.78 		 33750.78 		      0.00 
 	 O2 	   319.26 		   319.26 		      0.00 
 	 HAc 	  1479.39 		  1479.39 		      0.00 
 	 VAM 	  9731.14 		  9731.14 		      0.00 
 	 Water 	 18193.79 		 18193.79 		      0.00 
 	 CO2 	   364.47 		   364.47 		      0.00 
 	 C1 	    32.95 		    32.95 		      0.00 
 	 C2 	   144.15 		   144.15 		      0.00 
 	 Ar 	   456.01 		   456.01 		      0.00 
 	 N2 	    39.97 		    39.97 		      0.00 
 
 	 Total 	 64511.90 		 64511.90 		      0.00 
-------------------------------------------------------------
Column 1 

Component 	 In [kg/hr] 	 Out [kg/hr] 	 Balance [kg/hr] 
 
 	 ET 	     0.00 		     0.00 		      0.00 
 	 O2 	     0.00 		     0.00 		      0.00 
 	 HAc 	 11339.82 		 11339.82 		      0.00 
 	 VAM 	 14620.22 		 14620.22 		      0.00 
 	 Water 	  4202.79 		  4202.79 		      0.00 
 	 CO2 	     0.00 		     0.00 		      0.00 
 	 C1 	     0.00 		     0.00 		      0.00 
 	 C2 	     0.00 		     0.00 		      0.00 
 	 Ar 	     0.00 		     0.00 		      0.00 
 	 N2 	     0.00 		     0.00 		      0.00 
 
 	 Total 	 30162.83 		 30162.83 		      0.00 
-------------------------------------------------------------
Column 2 

Component 	 In [kg/hr] 	 Out [kg/hr] 	 Balance [kg/hr] 
 
 	 ET 	     0.00 		     0.00 		      0.00 
 	 O2 	     0.00 		     0.00 		      0.00 
 	 HAc 	  1007.24 		  1007.24 		      0.00 
 	 VAM 	 24017.82 		 24017.82 		      0.00 
 	 Water 	   759.66 		   759.66 		      0.00 
 	 CO2 	     0.00 		     0.00 		      0.00 
 	 C1 	     0.00 		     0.00 		      0.00 
 	 C2 	     0.00 		     0.00 		      0.00 
 	 Ar 	     0.00 		     0.00 		      0.00 
 	 N2 	     0.00 		     0.00 		      0.00 
 
 	 Total 	 25784.73 		 25784.73 		      0.00 
-------------------------------------------------------------
COMP 1 

Component 	 In [kg/hr] 	 Out [kg/hr] 	 Balance [kg/hr] 
 
 	 ET 	 32063.24 		 32063.24 		      0.00 
 	 O2 	   303.29 		   303.29 		      0.00 
 	 HAc 	     0.00 		     0.00 		      0.00 
 	 VAM 	    92.38 		    92.38 		      0.00 
 	 Water 	     0.00 		     0.00 		      0.00 
 	 CO2 	   346.24 		   346.24 		      0.00 
 	 C1 	    31.31 		    31.31 		      0.00 
 	 C2 	   136.94 		   136.94 		      0.00 
 	 Ar 	   433.21 		   433.21 		      0.00 
 	 N2 	    37.97 		    37.97 		      0.00 
 
 	 Total 	 33444.59 		 33444.59 		      0.00 
-------------------------------------------------------------
Reaction Cooler 

Component 	 In [kg/hr] 	 Out [kg/hr] 	 Balance [kg/hr] 
 
 	 ET 	 33750.78 		 33750.78 		      0.00 
 	 O2 	   319.26 		   319.26 		      0.00 
 	 HAc 	 12811.20 		 12811.20 		      0.00 
 	 VAM 	 24344.64 		 24344.64 		      0.00 
 	 Water 	  5116.53 		  5116.53 		      0.00 
 	 CO2 	   364.47 		   364.47 		      0.00 
 	 C1 	    32.95 		    32.95 		      0.00 
 	 C2 	   144.15 		   144.15 		      0.00 
 	 Ar 	   456.01 		   456.01 		      0.00 
 	 N2 	    39.97 		    39.97 		      0.00 
 
 	 Total 	 77379.96 		 77379.96 		      0.00 
-------------------------------------------------------------
Column Decanter 

Component 	 In [kg/hr] 	 Out [kg/hr] 	 Balance [kg/hr] 
 
 	 ET 	     0.00 		     0.00 		      0.00 
 	 O2 	     0.00 		     0.00 		      0.00 
 	 HAc 	   113.40 		   113.40 		      0.00 
 	 VAM 	 14620.22 		 14620.22 		      0.00 
 	 Water 	  4168.77 		  4168.77 		     -0.00 
 	 CO2 	     0.00 		     0.00 		      0.00 
 	 C1 	     0.00 		     0.00 		      0.00 
 	 C2 	     0.00 		     0.00 		      0.00 
 	 Ar 	     0.00 		     0.00 		      0.00 
 	 N2 	     0.00 		     0.00 		      0.00 
 
 	 Total 	 18902.39 		 18902.39 		      0.00 
-------------------------------------------------------------
Absorber Decanter 

Component 	 In [kg/hr] 	 Out [kg/hr] 	 Balance [kg/hr] 
 
 	 ET 	     0.00 		     0.00 		      0.00 
 	 O2 	     0.00 		     0.00 		      0.00 
 	 HAc 	  1479.39 		  1479.39 		     -0.00 
 	 VAM 	  9633.89 		  9633.89 		      0.00 
 	 Water 	 18193.79 		 18193.79 		     -0.00 
 	 CO2 	     0.00 		     0.00 		      0.00 
 	 C1 	     0.00 		     0.00 		      0.00 
 	 C2 	     0.00 		     0.00 		      0.00 
 	 Ar 	     0.00 		     0.00 		      0.00 
 	 N2 	     0.00 		     0.00 		      0.00 
 
 	 Total 	 29307.07 		 29307.07 		     -0.00 
-------------------------------------------------------------
KO Drum 

Component 	 In [kg/hr] 	 Out [kg/hr] 	 Balance [kg/hr] 
 
 	 ET 	 33750.78 		 33750.78 		      0.00 
 	 O2 	   319.26 		   319.26 		      0.00 
 	 HAc 	 12811.20 		 12811.20 		      0.00 
 	 VAM 	 24344.64 		 24344.64 		      0.00 
 	 Water 	  5116.53 		  5116.53 		      0.00 
 	 CO2 	   364.47 		   364.47 		      0.00 
 	 C1 	    32.95 		    32.95 		      0.00 
 	 C2 	   144.15 		   144.15 		      0.00 
 	 Ar 	   456.01 		   456.01 		     -0.00 
 	 N2 	    39.97 		    39.97 		     -0.00 
 
 	 Total 	 77379.96 		 77379.96 		     -0.00 
-------------------------------------------------------------
RXN HEATER 

Component 	 In [kg/hr] 	 Out [kg/hr] 	 Balance [kg/hr] 
 
 	 ET 	 41658.50 		 41658.50 		      0.00 
 	 O2 	  4846.46 		  4846.46 		      0.00 
 	 HAc 	 29727.78 		 29727.78 		      0.00 
 	 VAM 	    92.38 		    92.38 		      0.00 
 	 Water 	    34.02 		    34.02 		      0.00 
 	 CO2 	   346.24 		   346.24 		      0.00 
 	 C1 	    32.95 		    32.95 		      0.00 
 	 C2 	   144.15 		   144.15 		      0.00 
 	 Ar 	   456.01 		   456.01 		      0.00 
 	 N2 	    39.97 		    39.97 		      0.00 
 
 	 Total 	 77378.48 		 77378.48 		      0.00 
-------------------------------------------------------------
COL 1 HEAT X 

Component 	 In [kg/hr] 	 Out [kg/hr] 	 Balance [kg/hr] 
 
 	 ET 	     0.00 		     0.00 		      0.00 
 	 O2 	     0.00 		     0.00 		      0.00 
 	 HAc 	 11339.82 		 11339.82 		      0.00 
 	 VAM 	 14620.22 		 14620.22 		      0.00 
 	 Water 	 115514.28 		 115514.28 		      0.00 
 	 CO2 	     0.00 		     0.00 		      0.00 
 	 C1 	     0.00 		     0.00 		      0.00 
 	 C2 	     0.00 		     0.00 		      0.00 
 	 Ar 	     0.00 		     0.00 		      0.00 
 	 N2 	     0.00 		     0.00 		      0.00 
 
 	 Total 	 141474.32 		 141474.32 		      0.00 
-------------------------------------------------------------
COL 2 HEAT X 

Component 	 In [kg/hr] 	 Out [kg/hr] 	 Balance [kg/hr] 
 
 	 ET 	     0.00 		     0.00 		      0.00 
 	 O2 	     0.00 		     0.00 		      0.00 
 	 HAc 	  1007.24 		  1007.24 		      0.00 
 	 VAM 	 24017.82 		 24017.82 		      0.00 
 	 Water 	 112071.15 		 112071.15 		      0.00 
 	 CO2 	     0.00 		     0.00 		      0.00 
 	 C1 	     0.00 		     0.00 		      0.00 
 	 C2 	     0.00 		     0.00 		      0.00 
 	 Ar 	     0.00 		     0.00 		      0.00 
 	 N2 	     0.00 		     0.00 		      0.00 
 
 	 Total 	 137096.22 		 137096.22 		      0.00 
-------------------------------------------------------------
The Big Mixer 

Component 	 In [kg/hr] 	 Out [kg/hr] 	 Balance [kg/hr] 
 
 	 ET 	 41658.50 		 41658.50 		      0.00 
 	 O2 	  4846.46 		  4846.46 		      0.00 
 	 HAc 	 29727.78 		 29727.78 		      0.00 
 	 VAM 	    92.38 		    92.38 		      0.00 
 	 Water 	    34.02 		    34.02 		      0.00 
 	 CO2 	   346.24 		   346.24 		      0.00 
 	 C1 	    32.95 		    32.95 		      0.00 
 	 C2 	   144.15 		   144.15 		      0.00 
 	 Ar 	   456.01 		   456.01 		      0.00 
 	 N2 	    39.97 		    39.97 		      0.00 
 
 	 Total 	 77378.48 		 77378.48 		      0.00 
-------------------------------------------------------------
Absorber Mixer 

Component 	 In [kg/hr] 	 Out [kg/hr] 	 Balance [kg/hr] 
 
 	 ET 	     0.00 		     0.00 		      0.00 
 	 O2 	     0.00 		     0.00 		      0.00 
 	 HAc 	     8.00 		     8.00 		      0.00 
 	 VAM 	     6.72 		     6.72 		      0.00 
 	 Water 	 17280.05 		 17280.05 		      0.00 
 	 CO2 	     0.00 		     0.00 		      0.00 
 	 C1 	     0.00 		     0.00 		      0.00 
 	 C2 	     0.00 		     0.00 		      0.00 
 	 Ar 	     0.00 		     0.00 		      0.00 
 	 N2 	     0.00 		     0.00 		      0.00 
 
 	 Total 	 17294.77 		 17294.77 		      0.00 
-------------------------------------------------------------
Extract Mixer 

Component 	 In [kg/hr] 	 Out [kg/hr] 	 Balance [kg/hr] 
 
 	 ET 	     0.00 		     0.00 		      0.00 
 	 O2 	     0.00 		     0.00 		      0.00 
 	 HAc 	  1007.24 		  1007.24 		      0.00 
 	 VAM 	 24017.82 		 24017.82 		      0.00 
 	 Water 	   759.66 		   759.66 		      0.00 
 	 CO2 	     0.00 		     0.00 		      0.00 
 	 C1 	     0.00 		     0.00 		      0.00 
 	 C2 	     0.00 		     0.00 		      0.00 
 	 Ar 	     0.00 		     0.00 		      0.00 
 	 N2 	     0.00 		     0.00 		      0.00 
 
 	 Total 	 25784.73 		 25784.73 		      0.00 
-------------------------------------------------------------
HAc Recycle Pump 

Component 	 In [kg/hr] 	 Out [kg/hr] 	 Balance [kg/hr] 
 
 	 ET 	     0.00 		     0.00 		      0.00 
 	 O2 	     0.00 		     0.00 		      0.00 
 	 HAc 	 11226.42 		 11226.42 		      0.00 
 	 VAM 	     0.00 		     0.00 		      0.00 
 	 Water 	    34.02 		    34.02 		      0.00 
 	 CO2 	     0.00 		     0.00 		      0.00 
 	 C1 	     0.00 		     0.00 		      0.00 
 	 C2 	     0.00 		     0.00 		      0.00 
 	 Ar 	     0.00 		     0.00 		      0.00 
 	 N2 	     0.00 		     0.00 		      0.00 
 
 	 Total 	 11260.44 		 11260.44 		      0.00 
-------------------------------------------------------------
Raffinate Pump 

Component 	 In [kg/hr] 	 Out [kg/hr] 	 Balance [kg/hr] 
 
 	 ET 	     0.00 		     0.00 		      0.00 
 	 O2 	     0.00 		     0.00 		      0.00 
 	 HAc 	     8.00 		     8.00 		      0.00 
 	 VAM 	     6.72 		     6.72 		      0.00 
 	 Water 	  3779.02 		  3779.02 		      0.00 
 	 CO2 	     0.00 		     0.00 		      0.00 
 	 C1 	     0.00 		     0.00 		      0.00 
 	 C2 	     0.00 		     0.00 		      0.00 
 	 Ar 	     0.00 		     0.00 		      0.00 
 	 N2 	     0.00 		     0.00 		      0.00 
 
 	 Total 	  3793.74 		  3793.74 		      0.00 
-------------------------------------------------------------
Reactor 

Component 	 In [kg/hr] 	 Out [kg/hr] 	 Balance [kg/hr] 
 
 	 ET 	 41658.50 		 33750.78 		  -7907.72 
 	 O2 	  4846.46 		   319.26 		  -4527.21 
 	 HAc 	 29727.78 		 12811.20 		 -16916.58 
 	 VAM 	    92.38 		 24344.64 		  24252.26 
 	 Water 	    34.02 		  5116.53 		   5082.51 
 	 CO2 	   346.24 		   364.47 		     18.22 
 	 C1 	    32.95 		    32.95 		     -0.00 
 	 C2 	   144.15 		   144.15 		     -0.00 
 	 Ar 	   456.01 		   456.01 		     -0.00 
 	 N2 	    39.97 		    39.97 		     -0.00 
 
 	 Total 	 77378.48 		 77379.96 		      1.49 
-------------------------------------------------------------
Purge Splitter 

Component 	 In [kg/hr] 	 Out [kg/hr] 	 Balance [kg/hr] 
 
 	 ET 	 33750.78 		 33750.78 		      0.00 
 	 O2 	   319.26 		   319.26 		      0.00 
 	 HAc 	     0.00 		     0.00 		      0.00 
 	 VAM 	    97.24 		    97.24 		      0.00 
 	 Water 	     0.00 		     0.00 		     -0.00 
 	 CO2 	   364.47 		   364.47 		     -0.00 
 	 C1 	    32.95 		    32.95 		     -0.00 
 	 C2 	   144.15 		   144.15 		     -0.00 
 	 Ar 	   456.01 		   456.01 		     -0.00 
 	 N2 	    39.97 		    39.97 		     -0.00 
 
 	 Total 	 35204.83 		 35204.83 		     -0.00 
-------------------------------------------------------------
HAc FEED Turbine 

Component 	 In [kg/hr] 	 Out [kg/hr] 	 Balance [kg/hr] 
 
 	 ET 	     0.00 		     0.00 		      0.00 
 	 O2 	     0.00 		     0.00 		      0.00 
 	 HAc 	 18501.36 		 18501.36 		      0.00 
 	 VAM 	     0.00 		     0.00 		      0.00 
 	 Water 	     0.00 		     0.00 		      0.00 
 	 CO2 	     0.00 		     0.00 		      0.00 
 	 C1 	     0.00 		     0.00 		      0.00 
 	 C2 	     0.00 		     0.00 		      0.00 
 	 Ar 	     0.00 		     0.00 		      0.00 
 	 N2 	     0.00 		     0.00 		      0.00 
 
 	 Total 	 18501.36 		 18501.36 		      0.00 
-------------------------------------------------------------
Absorber CWS Turbine 

Component 	 In [kg/hr] 	 Out [kg/hr] 	 Balance [kg/hr] 
 
 	 ET 	     0.00 		     0.00 		      0.00 
 	 O2 	     0.00 		     0.00 		      0.00 
 	 HAc 	     0.00 		     0.00 		      0.00 
 	 VAM 	     0.00 		     0.00 		      0.00 
 	 Water 	 13501.03 		 13501.03 		      0.00 
 	 CO2 	     0.00 		     0.00 		      0.00 
 	 C1 	     0.00 		     0.00 		      0.00 
 	 C2 	     0.00 		     0.00 		      0.00 
 	 Ar 	     0.00 		     0.00 		      0.00 
 	 N2 	     0.00 		     0.00 		      0.00 
 
 	 Total 	 13501.03 		 13501.03 		      0.00 
-------------------------------------------------------------
ET Feed Valve 

Component 	 In [kg/hr] 	 Out [kg/hr] 	 Balance [kg/hr] 
 
 	 ET 	  9595.26 		  9595.26 		      0.00 
 	 O2 	     0.00 		     0.00 		      0.00 
 	 HAc 	     0.00 		     0.00 		      0.00 
 	 VAM 	     0.00 		     0.00 		      0.00 
 	 Water 	     0.00 		     0.00 		      0.00 
 	 CO2 	     0.00 		     0.00 		      0.00 
 	 C1 	     1.65 		     1.65 		      0.00 
 	 C2 	     7.21 		     7.21 		      0.00 
 	 Ar 	     0.00 		     0.00 		      0.00 
 	 N2 	     0.00 		     0.00 		      0.00 
 
 	 Total 	  9604.12 		  9604.12 		      0.00 
-------------------------------------------------------------
O2 Feed Valve 

Component 	 In [kg/hr] 	 Out [kg/hr] 	 Balance [kg/hr] 
 
 	 ET 	     0.00 		     0.00 		      0.00 
 	 O2 	  4543.17 		  4543.17 		      0.00 
 	 HAc 	     0.00 		     0.00 		      0.00 
 	 VAM 	     0.00 		     0.00 		      0.00 
 	 Water 	     0.00 		     0.00 		      0.00 
 	 CO2 	     0.00 		     0.00 		      0.00 
 	 C1 	     0.00 		     0.00 		      0.00 
 	 C2 	     0.00 		     0.00 		      0.00 
 	 Ar 	    22.80 		    22.80 		      0.00 
 	 N2 	     2.00 		     2.00 		      0.00 
 
 	 Total 	  4567.97 		  4567.97 		      0.00 
-------------------------------------------------------------
Reactor Valve 

Component 	 In [kg/hr] 	 Out [kg/hr] 	 Balance [kg/hr] 
 
 	 ET 	 33750.78 		 33750.78 		      0.00 
 	 O2 	   319.26 		   319.26 		      0.00 
 	 HAc 	 12811.20 		 12811.20 		      0.00 
 	 VAM 	 24344.64 		 24344.64 		      0.00 
 	 Water 	  5116.53 		  5116.53 		      0.00 
 	 CO2 	   364.47 		   364.47 		      0.00 
 	 C1 	    32.95 		    32.95 		      0.00 
 	 C2 	   144.15 		   144.15 		      0.00 
 	 Ar 	   456.01 		   456.01 		      0.00 
 	 N2 	    39.97 		    39.97 		      0.00 
 
 	 Total 	 77379.96 		 77379.96 		      0.00 
-------------------------------------------------------------
Overall Process 

Component 	 In [kg/hr] 	 Out [kg/hr] 	 Balance [kg/hr] 
 
 	 ET 	  9595.26 		  1687.54 		  -7907.72 
 	 O2 	  4543.17 		    15.96 		  -4527.21 
 	 HAc 	 18501.36 		  1584.78 		 -16916.58 
 	 VAM 	     0.00 		 24252.26 		  24252.26 
 	 Water 	 124812.52 		 129895.03 		   5082.51 
 	 CO2 	     0.00 		    18.22 		     18.22 
 	 C1 	     1.65 		     1.65 		     -0.00 
 	 C2 	     7.21 		     7.21 		     -0.00 
 	 Ar 	    22.80 		    22.80 		     -0.00 
 	 N2 	     2.00 		     2.00 		     -0.00 
 
 	 Total 	 157485.97 		 157487.45 		      1.49 
