Temperature (C)	Pressure (bar)	Density (mol/l)	Volume (l/mol)	Internal Energy (kJ/mol)	Enthalpy (kJ/mol)	Entropy (J/mol*K)	Cv (J/mol*K)	Cp (J/mol*K)	Sound Spd. (m/s)	Joule-Thomson (K/bar)	Viscosity (uPa*s)	Therm. Cond. (W/m*K)	Phase
10.000	5.0000	0.21323	4.6899	3.4983	5.8432	140.28	12.515	21.062	313.69	0.39839	21.688	0.017011	vapor
15.000	5.0000	0.20946	4.7741	3.5615	5.9485	140.65	12.513	21.050	316.48	0.38571	22.007	0.017259	vapor
20.000	5.0000	0.20583	4.8584	3.6246	6.0537	141.01	12.511	21.039	319.25	0.37356	22.324	0.017506	vapor
25.000	5.0000	0.20232	4.9426	3.6876	6.1589	141.36	12.509	21.029	321.99	0.36189	22.639	0.017752	vapor
30.000	5.0000	0.19894	5.0267	3.7507	6.2640	141.71	12.507	21.019	324.71	0.35070	22.953	0.017996	vapor
35.000	5.0000	0.19566	5.1108	3.8137	6.3691	142.06	12.506	21.010	327.40	0.33994	23.264	0.018238	vapor
40.000	5.0000	0.19250	5.1949	3.8767	6.4741	142.39	12.504	21.001	330.07	0.32959	23.574	0.018480	vapor
45.000	5.0000	0.18943	5.2789	3.9397	6.5791	142.73	12.503	20.993	332.71	0.31963	23.882	0.018720	vapor
50.000	5.0000	0.18647	5.3629	4.0026	6.6841	143.05	12.502	20.985	335.34	0.31004	24.188	0.018958	vapor
55.000	5.0000	0.18359	5.4469	4.0655	6.7890	143.38	12.500	20.978	337.94	0.30080	24.492	0.019195	vapor
60.000	5.0000	0.18081	5.5308	4.1284	6.8938	143.69	12.499	20.971	340.52	0.29189	24.795	0.019431	vapor
65.000	5.0000	0.17810	5.6147	4.1913	6.9987	144.01	12.498	20.965	343.09	0.28330	25.096	0.019665	vapor
70.000	5.0000	0.17548	5.6986	4.2542	7.1035	144.31	12.497	20.958	345.63	0.27500	25.395	0.019898	vapor
75.000	5.0000	0.17294	5.7825	4.3170	7.2083	144.62	12.496	20.953	348.15	0.26698	25.693	0.020130	vapor
80.000	5.0000	0.17046	5.8663	4.3799	7.3130	144.92	12.496	20.947	350.65	0.25923	25.989	0.020361	vapor
85.000	5.0000	0.16806	5.9501	4.4427	7.4177	145.21	12.495	20.942	353.14	0.25174	26.283	0.020590	vapor
90.000	5.0000	0.16573	6.0339	4.5055	7.5224	145.50	12.494	20.937	355.61	0.24449	26.576	0.020818	vapor
95.000	5.0000	0.16346	6.1177	4.5683	7.6271	145.79	12.493	20.932	358.06	0.23747	26.867	0.021045	vapor
100.00	5.0000	0.16125	6.2014	4.6310	7.7318	146.07	12.493	20.927	360.49	0.23068	27.156	0.021271	vapor
105.00	5.0000	0.15910	6.2852	4.6938	7.8364	146.35	12.492	20.923	362.90	0.22409	27.445	0.021495	vapor
110.00	5.0000	0.15701	6.3689	4.7565	7.9410	146.62	12.491	20.919	365.30	0.21771	27.731	0.021718	vapor
115.00	5.0000	0.15498	6.4526	4.8193	8.0456	146.89	12.491	20.915	367.68	0.21152	28.016	0.021941	vapor
120.00	5.0000	0.15299	6.5363	4.8820	8.1501	147.16	12.490	20.911	370.05	0.20551	28.300	0.022162	vapor
125.00	5.0000	0.15106	6.6199	4.9447	8.2547	147.43	12.490	20.907	372.40	0.19968	28.582	0.022382	vapor
130.00	5.0000	0.14917	6.7036	5.0074	8.3592	147.69	12.489	20.904	374.74	0.19401	28.863	0.022600	vapor
135.00	5.0000	0.14734	6.7872	5.0701	8.4637	147.94	12.489	20.900	377.06	0.18851	29.142	0.022818	vapor
140.00	5.0000	0.14554	6.8708	5.1328	8.5682	148.20	12.488	20.897	379.37	0.18317	29.420	0.023035	vapor
145.00	5.0000	0.14379	6.9545	5.1955	8.6727	148.45	12.488	20.894	381.66	0.17797	29.697	0.023250	vapor
150.00	5.0000	0.14208	7.0381	5.2581	8.7771	148.70	12.487	20.891	383.94	0.17292	29.972	0.023465	vapor
155.00	5.0000	0.14042	7.1216	5.3208	8.8816	148.94	12.487	20.888	386.20	0.16800	30.246	0.023678	vapor
160.00	5.0000	0.13879	7.2052	5.3834	8.9860	149.19	12.486	20.885	388.45	0.16322	30.519	0.023891	vapor
165.00	5.0000	0.13720	7.2888	5.4461	9.0904	149.43	12.486	20.883	390.69	0.15856	30.790	0.024102	vapor
170.00	5.0000	0.13564	7.3723	5.5087	9.1949	149.66	12.486	20.880	392.91	0.15402	31.060	0.024313	vapor
175.00	5.0000	0.13412	7.4559	5.5713	9.2993	149.90	12.485	20.878	395.13	0.14960	31.329	0.024522	vapor
180.00	5.0000	0.13264	7.5394	5.6339	9.4036	150.13	12.485	20.876	397.32	0.14529	31.597	0.024731	vapor
185.00	5.0000	0.13118	7.6229	5.6966	9.5080	150.36	12.485	20.873	399.51	0.14110	31.863	0.024938	vapor
190.00	5.0000	0.12976	7.7064	5.7592	9.6124	150.58	12.484	20.871	401.69	0.13700	32.128	0.025145	vapor
195.00	5.0000	0.12837	7.7899	5.8218	9.7167	150.81	12.484	20.869	403.85	0.13301	32.392	0.025350	vapor
200.00	5.0000	0.12701	7.8734	5.8844	9.8211	151.03	12.484	20.867	406.00	0.12911	32.655	0.025555	vapor
205.00	5.0000	0.12568	7.9569	5.9469	9.9254	151.25	12.484	20.865	408.14	0.12531	32.916	0.025759	vapor
210.00	5.0000	0.12437	8.0404	6.0095	10.030	151.47	12.483	20.863	410.27	0.12160	33.177	0.025962	vapor
215.00	5.0000	0.12309	8.1238	6.0721	10.134	151.68	12.483	20.861	412.38	0.11798	33.436	0.026164	vapor
220.00	5.0000	0.12184	8.2073	6.1347	10.238	151.89	12.483	20.860	414.49	0.11444	33.694	0.026365	vapor
225.00	5.0000	0.12062	8.2907	6.1972	10.343	152.10	12.483	20.858	416.58	0.11098	33.951	0.026565	vapor
230.00	5.0000	0.11941	8.3742	6.2598	10.447	152.31	12.482	20.856	418.67	0.10761	34.207	0.026765	vapor
235.00	5.0000	0.11824	8.4576	6.3224	10.551	152.52	12.482	20.855	420.74	0.10430	34.461	0.026963	vapor
240.00	5.0000	0.11708	8.5410	6.3849	10.655	152.72	12.482	20.853	422.80	0.10108	34.715	0.027161	vapor
245.00	5.0000	0.11595	8.6245	6.4475	10.760	152.92	12.482	20.852	424.86	0.097921	34.968	0.027358	vapor
250.00	5.0000	0.11484	8.7079	6.5100	10.864	153.13	12.482	20.850	426.90	0.094834	35.219	0.027554	vapor
255.00	5.0000	0.11375	8.7913	6.5726	10.968	153.32	12.481	20.849	428.93	0.091815	35.470	0.027749	vapor
260.00	5.0000	0.11268	8.8747	6.6351	11.072	153.52	12.481	20.847	430.96	0.088860	35.719	0.027944	vapor
265.00	5.0000	0.11163	8.9581	6.6976	11.177	153.71	12.481	20.846	432.97	0.085969	35.968	0.028137	vapor
270.00	5.0000	0.11060	9.0415	6.7602	11.281	153.91	12.481	20.845	434.97	0.083138	36.215	0.028330	vapor
275.00	5.0000	0.10959	9.1249	6.8227	11.385	154.10	12.481	20.844	436.97	0.080367	36.462	0.028522	vapor
280.00	5.0000	0.10860	9.2083	6.8852	11.489	154.29	12.481	20.843	438.95	0.077653	36.707	0.028714	vapor
285.00	5.0000	0.10762	9.2917	6.9477	11.594	154.48	12.480	20.841	440.93	0.074995	36.952	0.028904	vapor
290.00	5.0000	0.10667	9.3750	7.0103	11.698	154.66	12.480	20.840	442.90	0.072390	37.195	0.029094	vapor
295.00	5.0000	0.10573	9.4584	7.0728	11.802	154.85	12.480	20.839	444.86	0.069839	37.438	0.029283	vapor
300.00	5.0000	0.10480	9.5418	7.1353	11.906	155.03	12.480	20.838	446.81	0.067338	37.680	0.029472	vapor
