Temperature (C)	Pressure (bar)	Density (mol/l)	Volume (l/mol)	Internal Energy (kJ/mol)	Enthalpy (kJ/mol)	Entropy (J/mol*K)	Cv (J/mol*K)	Cp (J/mol*K)	Sound Spd. (m/s)	Joule-Thomson (K/bar)	Viscosity (uPa*s)	Therm. Cond. (W/m*K)	Phase
10.000	10.000	55.516	0.018013	0.75655	0.77457	2.7203	75.429	75.516	1448.7	-0.023245	1304.9	0.58048	liquid
15.000	10.000	55.482	0.018024	1.1338	1.1518	4.0410	75.142	75.401	1467.4	-0.022853	1136.9	0.58980	liquid
20.000	10.000	55.432	0.018040	1.5106	1.5286	5.3375	74.826	75.326	1483.8	-0.022488	1001.2	0.59887	liquid
25.000	10.000	55.367	0.018061	1.8871	1.9052	6.6110	74.485	75.281	1498.2	-0.022144	889.87	0.60760	liquid
30.000	10.000	55.289	0.018087	2.2634	2.2815	7.8628	74.122	75.257	1510.7	-0.021818	797.26	0.61591	liquid
35.000	10.000	55.199	0.018116	2.6396	2.6577	9.0938	73.738	75.249	1521.4	-0.021505	719.32	0.62373	liquid
40.000	10.000	55.098	0.018149	3.0158	3.0340	10.305	73.337	75.253	1530.5	-0.021204	653.05	0.63104	liquid
45.000	10.000	54.987	0.018186	3.3921	3.4103	11.497	72.921	75.268	1538.0	-0.020913	596.19	0.63780	liquid
50.000	10.000	54.866	0.018226	3.7685	3.7867	12.671	72.491	75.291	1544.2	-0.020628	547.00	0.64401	liquid
55.000	10.000	54.736	0.018269	4.1449	4.1632	13.827	72.050	75.321	1549.0	-0.020348	504.16	0.64968	liquid
60.000	10.000	54.597	0.018316	4.5216	4.5399	14.967	71.600	75.357	1552.6	-0.020072	466.60	0.65481	liquid
65.000	10.000	54.451	0.018365	4.8984	4.9168	16.089	71.142	75.400	1555.1	-0.019798	433.47	0.65944	liquid
70.000	10.000	54.296	0.018417	5.2755	5.2939	17.197	70.678	75.450	1556.5	-0.019525	404.12	0.66357	liquid
75.000	10.000	54.134	0.018473	5.6528	5.6713	18.288	70.210	75.506	1556.8	-0.019251	377.97	0.66724	liquid
80.000	10.000	53.965	0.018531	6.0305	6.0490	19.366	69.740	75.570	1556.2	-0.018976	354.58	0.67047	liquid
85.000	10.000	53.789	0.018591	6.4084	6.4270	20.428	69.268	75.642	1554.7	-0.018697	333.58	0.67330	liquid
90.000	10.000	53.606	0.018655	6.7868	6.8054	21.478	68.797	75.722	1552.3	-0.018415	314.65	0.67574	liquid
95.000	10.000	53.416	0.018721	7.1655	7.1843	22.514	68.327	75.811	1549.1	-0.018128	297.52	0.67783	liquid
100.00	10.000	53.220	0.018790	7.5448	7.5636	23.537	67.859	75.909	1545.1	-0.017834	281.98	0.67958	liquid
105.00	10.000	53.017	0.018862	7.9245	7.9434	24.548	67.395	76.018	1540.3	-0.017534	267.84	0.68103	liquid
110.00	10.000	52.809	0.018936	8.3048	8.3237	25.548	66.935	76.137	1534.8	-0.017225	254.93	0.68218	liquid
115.00	10.000	52.594	0.019014	8.6857	8.7048	26.535	66.479	76.268	1528.6	-0.016908	243.11	0.68305	liquid
120.00	10.000	52.373	0.019094	9.0674	9.0865	27.513	66.029	76.411	1521.8	-0.016580	232.26	0.68366	liquid
125.00	10.000	52.146	0.019177	9.4497	9.4689	28.479	65.585	76.567	1514.2	-0.016242	222.29	0.68403	liquid
130.00	10.000	51.912	0.019263	9.8329	9.8521	29.436	65.147	76.736	1506.1	-0.015891	213.08	0.68415	liquid
135.00	10.000	51.673	0.019352	10.217	10.236	30.383	64.715	76.919	1497.3	-0.015527	204.58	0.68404	liquid
140.00	10.000	51.428	0.019445	10.602	10.621	31.320	64.291	77.118	1487.9	-0.015148	196.71	0.68371	liquid
145.00	10.000	51.176	0.019540	10.988	11.007	32.249	63.873	77.332	1477.9	-0.014753	189.39	0.68316	liquid
150.00	10.000	50.918	0.019639	11.375	11.395	33.170	63.463	77.563	1467.3	-0.014342	182.59	0.68240	liquid
155.00	10.000	50.654	0.019742	11.763	11.783	34.083	63.060	77.811	1456.1	-0.013912	176.25	0.68142	liquid
160.00	10.000	50.384	0.019848	12.153	12.173	34.988	62.665	78.078	1444.3	-0.013461	170.34	0.68023	liquid
165.00	10.000	50.107	0.019957	12.544	12.564	35.885	62.277	78.365	1432.0	-0.012989	164.80	0.67882	liquid
170.00	10.000	49.823	0.020071	12.936	12.957	36.776	61.897	78.672	1419.1	-0.012493	159.60	0.67720	liquid
175.00	10.000	49.533	0.020189	13.331	13.351	37.661	61.525	79.003	1405.7	-0.011971	154.73	0.67537	liquid
179.88	10.000	49.243	0.020307	13.717	13.737	38.518	61.169	79.348	1392.0	-0.011435	150.24	0.67337	liquid
179.88	10.000	0.28559	3.5015	46.529	50.030	118.63	34.718	48.846	501.02	2.9473	15.021	0.036427	vapor
180.00	10.000	0.28548	3.5028	46.533	50.036	118.64	34.681	48.789	501.13	2.9433	15.027	0.036431	vapor
185.00	10.000	0.28117	3.5566	46.719	50.275	119.17	33.465	46.890	505.63	2.7906	15.244	0.036585	vapor
190.00	10.000	0.27708	3.6091	46.897	50.506	119.67	32.638	45.555	509.76	2.6586	15.461	0.036768	vapor
195.00	10.000	0.27317	3.6607	47.071	50.731	120.15	32.032	44.547	513.65	2.5412	15.677	0.036978	vapor
200.00	10.000	0.26943	3.7115	47.240	50.952	120.62	31.563	43.742	517.38	2.4344	15.894	0.037211	vapor
205.00	10.000	0.26584	3.7617	47.407	51.169	121.08	31.181	43.074	520.98	2.3360	16.110	0.037467	vapor
210.00	10.000	0.26238	3.8113	47.572	51.383	121.52	30.863	42.505	524.49	2.2442	16.325	0.037742	vapor
215.00	10.000	0.25904	3.8603	47.734	51.594	121.96	30.591	42.011	527.91	2.1583	16.541	0.038036	vapor
220.00	10.000	0.25582	3.9089	47.894	51.803	122.38	30.357	41.578	531.26	2.0775	16.756	0.038347	vapor
225.00	10.000	0.25271	3.9571	48.053	52.010	122.80	30.153	41.196	534.54	2.0012	16.972	0.038674	vapor
230.00	10.000	0.24969	4.0049	48.210	52.215	123.21	29.975	40.856	537.76	1.9292	17.187	0.039016	vapor
235.00	10.000	0.24677	4.0524	48.366	52.419	123.61	29.820	40.553	540.93	1.8610	17.402	0.039372	vapor
240.00	10.000	0.24393	4.0996	48.521	52.621	124.01	29.684	40.283	544.05	1.7965	17.616	0.039741	vapor
245.00	10.000	0.24117	4.1464	48.675	52.821	124.40	29.565	40.041	547.12	1.7353	17.831	0.040123	vapor
250.00	10.000	0.23849	4.1930	48.828	53.021	124.78	29.462	39.825	550.15	1.6773	18.046	0.040516	vapor
255.00	10.000	0.23589	4.2393	48.980	53.220	125.16	29.373	39.632	553.13	1.6221	18.260	0.040919	vapor
260.00	10.000	0.23335	4.2854	49.132	53.417	125.53	29.296	39.458	556.08	1.5697	18.474	0.041333	vapor
265.00	10.000	0.23088	4.3313	49.283	53.614	125.90	29.230	39.303	558.99	1.5199	18.689	0.041757	vapor
270.00	10.000	0.22847	4.3770	49.434	53.811	126.26	29.174	39.164	561.87	1.4724	18.903	0.042190	vapor
275.00	10.000	0.22611	4.4225	49.584	54.006	126.62	29.127	39.040	564.71	1.4272	19.117	0.042632	vapor
280.00	10.000	0.22382	4.4679	49.733	54.201	126.98	29.087	38.930	567.52	1.3841	19.331	0.043082	vapor
285.00	10.000	0.22158	4.5131	49.882	54.395	127.33	29.056	38.831	570.30	1.3429	19.544	0.043540	vapor
290.00	10.000	0.21939	4.5581	50.031	54.589	127.67	29.031	38.743	573.06	1.3036	19.758	0.044005	vapor
295.00	10.000	0.21725	4.6030	50.180	54.783	128.01	29.011	38.666	575.78	1.2661	19.971	0.044478	vapor
300.00	10.000	0.21516	4.6477	50.328	54.976	128.35	28.998	38.598	578.49	1.2302	20.185	0.044957	vapor
