379., 573.,	3.55959,	643.748,	-198.043	
273., 303.,	5.40221,	1838.675,	-31.737	
304., 333.,	5.20389,	1733.926,	-39.485	
334., 363.,	5.0768,	1659.793,	-45.854	
344., 373.,	5.08354,	1663.125,	-45.622	
293., 343.,	6.20963,	2354.731,	7.559	
255.9, 373.,	4.6543,	1435.264,	-64.848